/^\w+://10\.(?:(?:[1-9]?\d|1\d\d|2(?:[0-4]\d|5[0-5]))\.){2}(?:[1-9]?\d|1\d\d|2(?:[0-4]\d|5[0-5]))[:/]/$3p,domain=~localhost|~127.0.0.1|~[::1]|~0.0.0.0|~[::]|~local
/^\w+://127\.(?:(?:[1-9]?\d|1\d\d|2(?:[0-4]\d|5[0-5]))\.){2}(?:[1-9]?\d|1\d\d|2(?:[0-4]\d|5[0-5]))[:/]/$3p,domain=~localhost|~127.0.0.1|~[::1]|~0.0.0.0|~[::]|~local
/^\w+://172\.(?:1[6-9]|2\d|3[01])(?:\.(?:[1-9]?\d|1\d\d|2(?:[0-4]\d|5[0-5]))){2}[:/]/$3p,domain=~localhost|~127.0.0.1|~[::1]|~0.0.0.0|~[::]|~local
/^\w+://192\.168(?:\.(?:[1-9]?\d|1\d\d|2(?:[0-4]\d|5[0-5]))){2}[:/]/$3p,domain=~localhost|~127.0.0.1|~[::1]|~0.0.0.0|~[::]|~local
||airport^$3p,domain=~localhost|~127.0.0.1|~[::1]|~0.0.0.0|~[::]|~local
||aterm.me^$3p,domain=~localhost|~127.0.0.1|~[::1]|~0.0.0.0|~[::]|~local
||etxr^$3p,domain=~localhost|~127.0.0.1|~[::1]|~0.0.0.0|~[::]|~local
||huaweimobilewifi.com^$3p,domain=~localhost|~127.0.0.1|~[::1]|~0.0.0.0|~[::]|~local
||local^$3p,domain=~0.0.0.0|~127.0.0.1|~[::1]|~[::]|~local|~localhost
||localhost^$3p,domain=~localhost|~127.0.0.1|~[::1]|~0.0.0.0|~[::]|~local
||router.asus.com^$3p,domain=~localhost|~127.0.0.1|~[::1]|~0.0.0.0|~[::]|~local
||routerlogin.com^$3p,domain=~localhost|~127.0.0.1|~[::1]|~0.0.0.0|~[::]|~local
||routerlogin.net^$3p,domain=~localhost|~127.0.0.1|~[::1]|~0.0.0.0|~[::]|~local
||tplinkwifi.net^$3p,domain=~localhost|~127.0.0.1|~[::1]|~0.0.0.0|~[::]|~local
||[::1]^$3p,domain=~localhost|~127.0.0.1|~[::1]|~0.0.0.0|~[::]|~local
-300x250-$~xhr
.com/js/jquery/1.4.1/jquery-*.min.js?v=2.3.20|$script,1p,match-case,domain=com
.org/ad/$1p,domain=~playguide.org|~sonoyama.org|~ufcw870.org|~ylilauta.org
/banner728x90.
/js/safe.ob.min.js$script,1p
/^https?:\/\/cdn\.[a-z]{5,7}\.com\/app\.js$/$script,3p,match-case
/^https?:\/\/[0-9a-z]{7,18}\.com\/(?:ace|animate|bootstrap(-datepicker)?|ckeditor|slick)\.min\.js\?1\d{6}$/$script,3p
/^https?:\/\/[a-z]{8,15}\.(?:com|net)(\/(?:\d{1,5}|0NaN|articles?|browse|index|movie|news|pages?|static|view|web|wiki)){1,4}\/$/$popup,3p,match-case
/^https?:\/\/[a-z]{8,15}\.(?:com|net)\/(?:ajax|articles|config|custom|data|menu|resources|validators)(?:\.json)?$/$xhr,3p
/^https?:\/\/[a-z]{8,15}\.top(\/(?:\d{1,5}|0NaN|articles?|browse|index|movie|news|pages?|static|view|web|wiki)){1,4}\/$/$popup,3p,match-case
/^https?:\/\/[a-z]{8,15}\.xyz(\/(?:\d{1,5}|0NaN|articles?|browse|index|movie|news|pages?|static|view|web|wiki)){1,4}\/$/$popup,3p,match-case
/adimg/*
/banner468.$1p,domain=~3t1a.net|~9c25s.blog120.fc2.com|~a-head.cc|~and-shibuya.com|~angelino-lulu.com|~awatalia.com|~borero.net|~chiezobond.blog57.fc2.com|~chiyuudou.com|~clocknote.net|~crowsclaw.info|~digitalic-party.net|~dobuusagi.com|~emju.net|~f-g-s.net|~gairo4.blog133.fc2.com|~feltmusic.net|~forest306.com|~gameover25.web.fc2.com|~genkianamei.xxxxxxxx.jp|~golf.areasw.com|~hyakka.studio2x.com|~ironiac.com|~j-leskiss.com|~mandarin.dojin.com|~menesjapon.com|~navi1.x.fc2.com|~o-mikan.net|~otowaseinennkai.org|~red.redalice.net|~saisenturn.net|~shintamanegi.com|~sketchuprecordings.com|~stardust.studio2x.com|~yoccho.com
/images/ad-$~script,domain=~slimjet.com
/jquery.meerkat.
/wpsafelink.js
_Ad300x250_
||araklet.mediagene.co.jp^$3p
||ip.prvtx.net^
||cn.dap.dmm.co.jp^
||imlive.com^$script,3p,domain=~imnude.com
/wp-content/uploads/*?w=620&ssl=1|$image,domain=megabrasil.jp
||4ka.net/images/top/banner/
||accuweather.com/bundles/prebid.$important
||aiasahi.jp/ads/$important
||akamai.net^*/pict.sbisec.co.jp/sbisec/images/banner/bnr780_campaign_$domain=sbisec.co.jp
||amazonaws.com/storage.shukatsu-ichiba.com/banner/$domain=shukatsu-ichiba.com
||bwbx.io/s3/javelin/public/javelin/js/foundation/LeaderboardAd/$domain=bloomberg.com
||bwbx.io/s3/javelin/public/javelin/js/foundation/OverlayAd/$domain=bloomberg.com
||bwbx.io/s3/javelin/public/javelin/js/foundation/SuperburstAd/$domain=bloomberg.com
||caribbeancom.com^$3p,domain=~1pondo.tv|~adult-navi.net|~adult-websearch.net|~adultmovieplus.com|~caribbeancom-sample.com|~caribbeancomgirl.com|~d2pass.com|~docodemodouga.com|~eroking.net|~eroxjapanz.com|~fc1adult.com|~gayshamesf.org|~heydouga.com|~hotellestilleuls-hasparren.com|~javxxx.me|~medicaltourexpert.com|~nukiez.tv|~scar2014.com|~sexy-parts.com|~tenmusume.com|~warashi-asian-pornstars.fr|~xn--eckveb0l002pve5b.com
||cdn.concert.io/lib/adblock/sbnation.html
||codexa.net/wp-content/uploads/2020/04/codexa_banner02.png
||dospara.co.jp/5img/side/bnr_
||ebook-assets.dmm.com^$3p,domain=~brodymag.com|~dmm.co.jp
||facebook.com/ajax/bootloader-endpoint*Comet
||g.doubleclick.net/tag/js/gpt.js$important,domain=accuweather.com
||gnst.jp/r/banner_mng/
||i5.walmartimages.com/dfw/4ff9c6c9-29f9/k2-$script
||i5.walmartimages.com/dfw/4ff9c6c9-6451/k2-$script
||img.gcolle.net^$3p,domain=~ckclike.com|~contentking.tokyo|~cosfeti2.blog.fc2.com|~ebi-chan.info|~face3210.com|~fechicolle.com|~fetishism.tokyo|~gcolle.xyz|~gesumogura.com|~gripav.biz|~hentai4610.com|~ikenaikoto.com|~javdig.com|~jkcosplay.tokyo|~kmc-av.com|~machidoriwalker.com|~machifechi.com|~plus-love.net|~porns7.com|~sanzis-ffs.blog|~seisyakai.com|~street-legs.blog.jp|~sukebe48.com|~tamago-chan.com|~videooyaji.net|~xn--gcolle-um2j928d.net|~zuma-rakuen.com|~zumalife.info
||iobit.com/wp-content/themes/iobit/img/summer/store-pop-
iobit.com##.rabbit-store-pop
||jinjibu.jp/updir/adv_web_banner/
||keisan-mondai.com/pgm/ad-main.php
||kenoh.com/banner/
||r10s.jp/com/img/banner/
||r10s.jp/com/inc/search/*_hp_creator_400x800.png$domain=search.rakuten.co.jp
search.rakuten.co.jp##.keywordcontent.dui-card
||rakuten-static.com/1/js/anl/$domain=member.id.rakuten.co.jp
||s3.reutersmedia.net/resources/*&rtn=$image
||storage.googleapis.com/img-pcolle/$domain=~av-wiki-anex.com|~avwiki.org|~ckclike.com|~fechiore.com|~gcollejk.net|~jav-hub.com|~kmc-av.com|~machidoriwalker.com|~panchira-kissa.com|~panchirasakasa.link|~pantira.info|~pantira-review.com|~pcolle.jp|~pnty.net|~sakasa-panty.com|~seihukujyosi.com|~shikoshikomantaro.com
||webike.net/sys_images/saimg/*_1000_45.$domain=webike.net
||yimg.jp/images/finance/bnr/$domain=finance.yahoo.co.jp
@@||adframe.kohsoku.info/ads/$frame,domain=xn--cck1a7gsd645rnx7b.com,badfilter
@@||cdn.logly.co.jp^$image,domain=veryweb.jp,badfilter
@@||click.speee-ad.jp^$script,domain=saitama-np.co.jp,badfilter
@@||cloudfront.net/files/rcms_conv_webp/files/user/images/sidead/$domain=bcnretail.com,badfilter
@@||logly.co.jp/lift$script,domain=veryweb.jp,badfilter
veryweb.jp##.c-articleList > div[id^=logly]:upward(1)
@@||nicoad.nicovideo.jp/v1/nicoadgroups|$xhr,1p,badfilter
@@||speee-ad.akamaized.net^$css,image,script,domain=saitama-np.co.jp,badfilter
@@||tochinavi.net/ad/img/$image,1p,badfilter
||dap.dmm.*/dmm-c-sdk.js$domain=~book.dmm.co.jp
##.adblock-allowlist-messaging__wrapper
##.dfad
##body[id][class*=post-] section[class*=cta]
2099.jp##.ugb-cta:not(.ugb-cta--design-plain)
softonic.com##+js(aeld, , [native code])
facebook.com##[aria-label*=Marketplace] object > a[href^="/ads/"] > span:not(:empty):upward(11)
iwatetabi.jp###ad
leon.jp##.st-KaeruleonPosts
leon.jp##.sw-RecommendPost
leon.jp##.tp-Promotion
mazimazi-party.com###text-37
news.mynavi.jp##.headerNav_listNode-hisamitsu
news.mynavi.jp##.headerNav_sponsored
recipe.cotta.jp##+js(aopr, NEW_CUSTOMER_MODAL)
slate.com##aside#cxense-recs-in-article
webike.net###pc_top_obi_2
xn--cck1a7gsd645rnx7b.com##.thumbnail > iframe[src^="//adframe."]:upward(1)
youtube.com##+js(json-prune, 2.playerResponse.adPlacements playerResponse.adPlacements playerResponse.playerAds adPlacements playerAds)
youtube.com##+js(json-prune, 2.playerResponse.adPlacements)
youtube.com##+js(json-prune, playerResponse.adPlacements)
youtube.com##+js(json-prune, playerResponse.playerAds)
youtube.com##+js(set, ytInitialPlayerResponse.adPlacements, null)
~2099.jp,~bitly.com,~mazimazi-party.com##article[id][class*=post-] div[class*=cta]
gizmodo.jp,lifehacker.jp##.inner-buy-box
iwate-np.co.jp##.news-box-article-list > li:has-text(広告)
iwate-np.co.jp##.type1:has-text(広告)
iwatetabi.jp###adbnr
smart-flash.jp##.adsBlock
gizmodo.jp,lifehacker.jp##^.inner-buy-box
iwate-np.co.jp##^.news-box-article-list > li:has-text(広告)
iwate-np.co.jp##^.type1:has-text(広告)
iwatetabi.jp##^#adbnr
smart-flash.jp##^.adsBlock
@@||ad-house.jp/images/ad-top_01.gif
@@||aditalia.jp/images/ad-$image,1p
@@||adoner.jp/images/ad-logo.png
@@||akbar.co.jp/images/ad-$image,1p
@@||alpha-gate.jp/images/ad-icon_01.png
@@||apple.com^*/images/ad-$image,domain=apple.com
@@||aqsys.co.jp/images/ad-1-main-300x300.jpg
@@||arcangeli.jp/images/ad-logo.gif
@@||atrain.jp/images/ad-crop-u122384.jpg
@@||blanche-toile.com/freestyle/wp-content/themes/fs1/images/ad-position.png
@@||bry.jp/images/ad-d_$image,1p
@@||careerspot.jp/images/ad-$image,1p
@@||d-n-a.co.jp/wp-content/themes/dna/images/ad-solid.svg
@@||dct-group.co.jp/images/ad-001.jpg
@@||dentrepair.jp/images/ad-d_$image,1p
@@||doujin-assets.dmm.co.jp/p/pf/service/logotype/doujin_r18.svg
@@||dream.ed.jp/images/ad-3
@@||dri.co.jp/images/ad-$image,1p
@@||excellence.co.jp/images/ad-sougoushikaku.gif
@@||gayjob.jp/images/ad-$image,1p
@@||goodpass.jp/images/ad-thum-$image,1p
@@||hasune-sokusan.jp/images/ad-button.png
@@||ishikawa-sokusan.jp/images/ad-button.png
@@||kfctriathlon.com/images/ad-event-title.gif
@@||koekisha-ad.jp/images/ad-$image,1p
@@||kotsuadcenter.jp/images/ad-$image,1p
@@||locopan.jp/js/jquery.meerkat.$1p
@@||maemoto.co.jp/images/ad-logo2.png
@@||makino-ohyo.jp/product/adapter/images/AD-$image,1p
@@||miyaepoch.jp/service/images/AD-3_W.jpg
@@||mobius1.jp/published/publicdata/*/attachments/SC/images/ad-$image,1p
@@||music-bunker.jp/images/ad-$image,1p
@@||music-bunker.jp/recruit/extra/images/ad-extra.jpg
@@||musicoin.jp/images/ad-free-streaming.png
@@||n-h-c.jp/images/ad-search/$image,1p
@@||oizumi.gr.jp/wp-content/themes/oizumi-resp/images/ad-$image,1p
@@||opticoat.co.jp/peripheral/images/AD-$image,1p
@@||osabishi.jp/cake/images/ad-sc.jpg
@@||pics.dmm.co.jp/livechat/event/event_$image,3p
@@||plasticsage.co.jp/contact/images/ad-space.gif
@@||postmankobe.co.jp/images/ad-nega.png
@@||rell.co.jp/images/ad-bodo-Sep-Final-v2.png
@@||ring-rental.jp/images/ad/btn_asbboxing.png
@@||ringo-no-mori.jp/images/ad-bnr/$image,1p
@@||s-heroes.co.jp/images/ad-$image,1p
@@||sei-hon.jp/images/ad-$image,1p
@@||shieldsoft.co.jp/common/images/ad-
@@||taishoen.co.jp/wp/wp-content/themes/understrap/images/ad-mark.png
@@||tateyama448.jp/images/ad-s.gif
@@||television-ad.com/ad-mechanism/images/ad-fee-bg02.jpg
@@||tendo-ad.co.jp/images/ad-title.gif
@@||tokyodoors.co.jp/media/images/ad-channel/
@@||town.shisui.chiba.jp/_common/themes/shisui/piece/images/ad-bosyu.png
@@||xn--68j3b118kc3c8tqzrlcrd9ts.jp/images/ad-arrow.jpg
@@.com/upload_image/$image,domain=chobirich.com|dietnavi.com|gendama.jp|point.i2i.jp|pointtown.com,badfilter
@@.jp/ad/$image,domain=chobirich.com|cmnw.jp|gendama.jp|moppy.jp|netmile.co.jp|pint.yattayo.net|pointi.jp|pointtown.com,badfilter
@@.jp/af/$image,domain=chobirich.com|gendama.jp|manpukujima.com|netmile.co.jp|pointtown.com,badfilter
@@.jp/affiliate/$image,domain=dietnavi.com|gendama.jp|manpukujima.com|moppy.jp|t-mall.tsite.jp,badfilter
@@/300x250.$image,domain=gpoint.co.jp|point.i2i.jp,badfilter
@@/ad_banner/*$image,domain=manpukujima.com,badfilter
@@/advertise/*$image,domain=manpukujima.com,badfilter
@@/assets/dist/img/general/top/img/ad/*$domain=afi-b.com|affiliate-b.com,badfilter
@@/img/aff/*_300_250.$image,domain=lifemedia.jp,badfilter
@@://affiliate.sonicsense.jp/data.php?$image,domain=yentame.net,badfilter
@@://promo.norton.com/aff/banner/$image,domain=t-mall.tsite.jp,badfilter
@@_160x600.$image,domain=elne.jp,badfilter
@@_300_250$image,domain=chobirich.com|gpoint.co.jp,badfilter
@@_300x250$image,domain=chobirich.com|elne.jp|gpoint.co.jp|point.i2i.jp,badfilter
@@_728_90.$image,domain=moraerumall.com,badfilter
@@_728_90_$image,domain=moraerumall.com,badfilter
@@/ad_images/*$image,domain=dietnavi.com,badfilter
@@||a8.net/svt/bgt$image,domain=chobirich.com|cmnw.jp|coreda.jp|dietnavi.com|ecnavi.jp|elne.jp|gendama.jp|lifemedia.jp|moppy.jp|pint.yattayo.net|point.i2i.jp|point.monocla.com|pointi.jp|pointtown.com|saito-s.com|t-mall.tsite.jp|yentame.net,badfilter
@@||accesstrade.net^$image,domain=chobirich.com|cmnw.jp|coreda.jp|dietnavi.com|ecnavi.jp|elne.jp|gendama.jp|lifemedia.jp|manpukujima.com|moppy.jp|pint.yattayo.net|point-land.net|point.i2i.jp|pointi.jp|pointtown.com|t-mall.tsite.jp|yentame.net,badfilter
@@||ad-leap.jp/ad_material/$image,domain=pointi.jp,badfilter
@@||ad-track.jp/ad/p/img?$image,domain=elne.jp,badfilter
@@||ad-track.jp/img/admin/$image,domain=elne.jp|gendama.jp|moppy.jp|pint.yattayo.net|pointtown.com,badfilter
@@||adfactory.io^$image,domain=chobirich.com|dietnavi.com|netmile.co.jp,badfilter
@@||advack.net/p/?ad=$image,domain=gendama.jp|pint.yattayo.net|point.i2i.jp,badfilter
@@||af-110.com/banner/$image,domain=chobirich.com|dietnavi.com|ecnavi.jp|elne.jp|gendama.jp|lifemedia.jp|moppy.jp|netmile.co.jp|point-land.net|pointi.jp|point.i2i.jp|pointtown.com|yentame.net,badfilter
@@||afi-b.com/upload_image/$domain=elne.jp|moppy.jp|point-land.net|pointi.jp,badfilter
@@||afl.rakuten.co.jp^$image,domain=chobirich.com|coreda.jp|lifemedia.jp|netmile.co.jp|pointtown.com,badfilter
@@||amazonaws.com/affiliate-img.docomo.ne.jp/banner/$image,domain=elne.jp|pointi.jp,badfilter
@@||ascii.jp/img/ad/yayoi/rank_$image,1p,badfilter
@@||atown.jp^$image,domain=chobirich.com|dietnavi.com|ecnavi.jp|elne.jp|gendama.jp|moppy.jp|netmile.co.jp|pint.yattayo.net|point.i2i.jp|pointi.jp|pointtown.com,badfilter
@@||bellemaison.jp/pc/premoni/ad/$image,domain=chobirich.com|gendama.jp|moppy.jp,badfilter
@@||camp-fire.jp/uploads/storage/ls_images/$domain=moppy.jp,badfilter
@@||cf.smaad.net^$image,domain=chobirich.com|lifemedia.jp|point-land.net|pointi.jp,badfilter
@@||cross-a.net^$image,domain=cmnw.jp|dietnavi.com|ecnavi.jp|elne.jp|gendama.jp|manpukujima.com|moppy.jp|netmile.co.jp|point-land.net|pointtown.com,badfilter
@@||dell.com/images/jp/banners/$image,domain=chobirich.com,badfilter
@@||digitalidentity.co.jp/blog/wp/wp-content/uploads/2021/03/sidebnr_ad01.png,badfilter
@@||dtiserv2.com/cgi-bin/meta_search.cgi$script,domain=sexpixbox.com,badfilter
@@||j-a-net.jp^$image,domain=chobirich.com|dietnavi.com|ecnavi.jp|elne.jp|gendama.jp|lifemedia.jp|moppy.jp|netmile.co.jp|pint.yattayo.net|point-land.net|point.i2i.jp|pointi.jp|pointtown.com|t-mall.tsite.jp|yentame.net,badfilter
@@||linksynergy.com^$image,domain=chobirich.com|dietnavi.com|lifemedia.jp|manpukujima.com|moppy.jp|point.i2i.jp,badfilter
@@||netmile.co.jp/ad/images/$image,badfilter
@@||point-g.rakuten.co.jp/pg_assets/item/contets/*_300_250_$image,1p,badfilter
@@||point-g.rakuten.co.jp/pg_assets/item/contets/*_300x250_$image,1p,badfilter
@@||prf.hn/source/$image,domain=chobirich.com|gendama.jp|point.i2i.jp,badfilter
@@||sjbd.jp/affiliate/LS/$image,domain=pointtown.com,badfilter
@@||skyflag.jp/img/admin/$image,domain=gendama.jp|moppy.jp,badfilter
@@||smart-c.jp/i?$image,domain=moppy.jp,badfilter
@@||sofmap.com/ec/topics/linkshare/toppage/120x60.$image,domain=chobirich.com,badfilter
@@||tcs-asp.net/imagesender$image,domain=chobirich.com|dietnavi.com|ecnavi.jp|gendama.jp|lifemedia.jp|moppy.jp|point.i2i.jp|yentame.net,badfilter
@@||toysrus.co.jp/*/ls/120_$image,domain=t-mall.tsite.jp,badfilter
@@||trafficgate.net/t/b/$image,domain=chobirich.com|dietnavi.com|ecnavi.jp|gendama.jp|lifemedia.jp|manpukujima.com|moppy.jp|moraerumall.com|netmile.co.jp|point.i2i.jp|pointi.jp|pointtown.com|t-mall.tsite.jp,badfilter
@@||valuecommerce.com^$image,domain=chobirich.com|cmnw.jp|coreda.jp|dietnavi.com|ecnavi.jp|gendama.jp|lifemedia.jp|manpukujima.com|moppy.jp|netmile.co.jp|point.i2i.jp|pointi.jp|pointtown.com|t-mall.tsite.jp|yentame.net,badfilter
@@||xmax.jp/trade/$image,domain=ecnavi.jp|lifemedia.jp|pointtown.com,badfilter
||omnitagjs.com^$1p
@@optout$frame,script,domain=youronlinechoices.com,badfilter
@@status$frame,domain=youronlinechoices.com,badfilter
@@||ad.amgdgt.com/ads/js/$domain=ad.amgdgt.com,badfilter
@@||adtdp.com/optout.js$domain=smalgo.jp,badfilter
@@||criteo.com/process/criteo_optout^$script,1p,badfilter
@@||focas.jp/optout/optout.html$domain=adroute.froute.jp,badfilter
@@||gmossp-sp.jp/js/optout/$frame,domain=akane-ad.com,badfilter
@@||gmossp-sp.jp/optout/$frame,domain=akane-ad.com,badfilter
@@||hlserve.com/delivery/iaboptout?$script,domain=criteo.com,badfilter
@@||ladsp.com/optout/getoptout?$script,domain=so-netmedia.jp,badfilter
@@||optout.mookie1.com/optout$badfilter
@@||primecaster.net/adlogue/api/id|$script,1p,badfilter
@@||primecaster.net/optout.css$1p,badfilter
@@||primecaster.net/optout.html$domain=news-tv.jp,badfilter
@@||privacy.criteo.com/api/iab/optoutstatus?$script,1p,badfilter
@@||tag.ladsp.com/optout?$script,domain=so-netmedia.jp,badfilter
||a8.net^$doc
||a8clk.xserver.ne.jp^
||aaaf.jp^
||aas.information-portal.net^
||act.gro-fru.net^
||ad-arrow.com^
||ad-clcount.com^
||ad-fam.com^
||ad-feed.com^
||ad-link.net^
||ad-seek.jp^
||ad.886644.com^
||ad.isaf.jp^
||adgocoo.com^
||adjust.com^$doc
||adpon.net^
||adm.shinobi.jp^$1p
||adcent.jp^$doc
||admane.jp^
||ads-lite.net^
||adtrack.unext.jp^
||al.dmm.co.jp^$doc
||af.moshimo.com^$doc
||af.tosho-trading.co.jp^$doc
||affiliate.shopping.yahoo.co.jp^$doc
||affiliate.suruga-ya.jp^$doc
||affiliateone.jp^
||asp.m-live.jp^
||blogroll.livedoor.net/ad_redirect?$doc
||cir.io^
||cl.link-ag.net^
||click.affiliate.ameba.jp^
||click.dsiads.mopo.jp^
||click.dtiserv2.com^
||click.duga.jp^
||click.gamingtrk.com^
||click.pacrimlink.net^
||cyber-ad01.cc^
||decotra.tokyo^
||digi-tag.net^$doc
||directlink.jp/tracking/$doc
||emjcd.com^$doc
||fam-ad.com^
||fintech-asp.com^
||focas.jp^
||g.msn.com^$doc
||g-af.com^
||get.mobu.jp^
||gorilatte.net^
||i2idata.com^
||infotop.jp/click.php$doc
||kqzyfj.com/click-$doc
||menue.jp/ad/$doc
||mobadme.jp^$doc
||mybest.network^$doc
||onlyry.net^
||pr.dmm.co.jp^
||refer.ccbill.com^
||rs6.net^
||samuraiclick.com^$doc
||send.microad.jp^
||smart-a.jp^
||smart-c.jp^$doc
||smartaccess.biz^$doc
||t.afi-b.com^
||tonxton.com/advertisementLog/$doc
||tr.ver-net.jp^
||track.affiliate-b.com^
||track.aftrk3.com^
||tracker-pm2.konibet.com^
||tradedoubler.com^
||uncn.jp^
||viglink.com^
||wlink.golden-gateway.com^
@@||epub-tw.com/reader/ad/banner_$image,1p,badfilter
*$ping,3p
-adobe-analytics/
-contrib-ads/
-google-analytics/$domain=~wordpress.org
.s_code.js$domain=cadillacjapan.com|chevroletjapan.com
/AdobeAnalyticsBundle.
/AppMeasurement.js
/AppMeasurement.min.js
/AppMeasurement_Module_
/Criteo/*$script
/TealeafSDK.js
/TrackingService.js
/^https:\/\/[a-z]\d{3}\.[a-z]{6,18}\.com\/script\.js$/$script,1p,match-case,domain=com
/abstat.
/adobe-analytics2.
/analytics/event
/analytics/v1/*$domain=~my.leadpages.net|~userzoom.com
/analyticsmediator.
/api/analytics/*
/api/tracking/*
/bugsnag.min.js
/comscore.
/cxense-candy.js
/detm-container-
/dtm/*/satellitelib-
/dynatrace/*$domain=~dynatrace-managed.com|~dynatrace.com|~github.com|~github.io
/fe_logger?
/firebase-performance-
/friendbuy.min.js
/frosmo.easy.js
/geo.php?
/geoLocationData/v1/*
/js/access.js$domain=~expocity-mf.com|~smt-cinema.com
/js/counter.js
/js/optscript/script-$1p
/js/tracking/*
.jp/assets/js/Stats.js|$script,1p,badfilter
/js/stats.js
/metaTag.min.js
/mistats/*
/monetate.js
/newrelic.js
/pageviews/*$domain=~pageviews.toolforge.org|~stats.wikimedia.org|~tools.wmflabs.org
/rtoaster.js$script
/rum.min.
/s_code.$domain=4travel.jp|akiba-souken.com|asahibeer.co.jp|daiwa.jp|eiga.com|fontplus.jp|his-j.com|hpplus.jp|lake.jp|magaseek.com|nikon-image.com|nomura.co.jp|nttdocomo.co.jp|orbis.co.jp|peachjohn.co.jp|ponparemall.com|rakuten-bank.co.jp|service.mcafee.com|shop-yukimeg.jp|shopch.jp|smart-j.com|tabelog.com|www.smbc.co.jp|zexy-enmusubi.net
/s_codeCommon-$domain=news.infoseek.co.jp
/s_codeCommon.$domain=buyback.rakuten.co.jp|denwa.rakuten.co.jp|delivery.rakuten.co.jp|keiba.rakuten.co.jp|rakuten-life.co.jp|shaken.rakuten.co.jp
/s_code_$domain=cs.myjcom.jp|ext.hp.com|fontplus.jp|froma.com|haken.rikunabi.com|his-j.com|kinarino-mall.jp|surpricenow.com|townwork.net|www.kddi.com
/s_code2.$domain=infoseek.co.jp
/sdc.js
/services/analytics/*
/shopify-boomerang-
/sitecatalyst/*$domain=ana.co.jp|asia.nikkei.com|bellemaison.jp|energy.rakuten.co.jp|fujisan.co.jp|jcom.co.jp|ozmall.co.jp|recruit.co.jp|takarakuji.rakuten.co.jp
/streamsense.min.js
/tealeaf.js
/tealium-utag-
/utag_data.
/v60.js
/visilabs.min.js
/web-js-telemetry-service/*
/webtrekk.js$domain=db.com
/webtrends.min.
/zhugeio.js
://ensighten.
://lightning.*/launch/
_omniture.$script,domain=mathworks.com
/jquery.iframetracker.
||asadcdn.com^$3p
||cdn-net.com^$3p
||d2wy8f7a9ursnm.cloudfront.net^
||dcf.espn.com^
||dynatrace-managed.com^$3p
||ensighten.com^$3p
||extreme-ip-lookup.com^$3p
||fraudjs.io^$3p
||geoip-js.com^$3p
||geolocation-db.com^$3p
||h-cast.jp^$3p
||iesnare.com^
||inpref.com^$3p
||inside-graph.com^$3p
||ioam.de^
||ipapi.co^$3p
||ipdata.co^$3p
||ipify.org^$3p
||kaptcha.com^$3p
||mkto-*.com^$3p
||monitor.azure.com^
||mps-gba.de^$3p
||ourl.link^
||recs.richrelevance.com^$3p
||rtoaster.jp^$3p
||sail-horizon.com^
||tag.aticdn.net^
||tm.ma.future-shop.net^
/\.(?:co(?:m|\.uk)|jp)\/[-_0-9a-zA-Z]{6,}\/[-\/_0-9a-zA-Z]{30,}$/$script,1p,domain=aa.com|americanairlines.jp|ana.co.jp|comptoirdescotonniers.co.jp|flypeach.com|helmutlang.com|hm.com|ibm.com|jal.co.jp|jetstar.com|santanderbank.com|shopdisney.*|theory.co.jp|zozo.jp
/\.(?:com|cn|jp)\/[-_0-9a-zA-Z]{4,}\/[-\/_0-9a-zA-Z]{30,}$/$script,1p,domain=asos.com|zara.*
@@||bdash-cloud.com/out/recommendations?$script,3p,badfilter
@@||bdash-cloud.com/recommend-script/$script,3p,badfilter
@@||bdash-cloud.com/recommend-script/$script,domain=junonline.jp
||adobedtm.com^$3p,domain=~adobe.com
||api.nike.com/measure/uxevents/
||api.twitter.com^*/external_referer.json|
||apps.nhk.or.jp/assets/dtm/
||blog.hubspot.jp/hs/cta/cta/current.js
||browser.pipe.aria.microsoft.com^
||carsensor.net/vos/
||cart.ec-sites.jp/cart_accept/js/google-analytics.
||ccpa.sp-prod.net/ccpa.js
||cedexis.net^$script,3p
||cleverbridge.com/*/cleverAnalytics.js^
||clixtell.com/track.js
||cloudflare.com/cdn-cgi/trace$3p,domain=~isbgpsafeyet.com|~wyndhamdestinations.com
||cloudflare.com/cdn-cgi/trace$3p,xhr,redirect-rule=noop.txt,domain=~1bit.space|~1bitspace.com|~funimation.com
||collect.igodigital.com^$script
||cxense.com^$frame,script,xhr,3p
||docomo.ne.jp/js_osp/common/sitesearch_log.js
||docomo.ne.jp^*/js_osp/common/v2_accordion_log.js?
||dynamicyield.com/st?
||edge.adobedc.net^$xhr,domain=docomo.ne.jp
||facebook.com/platform/scribe_endpoint.php/
||gsght.com/twizards.js
||jreast.co.jp/material/js/rt.js
||linkedin.com/li/track^
||livechatinc.com/tracking.js
||maxmind.com/geoip/$3p
||maxmind.com^*/geoip2.js
||mercari.jp/experiments/$xhr
||misumi-ec.com/vcommon/common/js/dtm-
||news.mynavi.jp/assets/tagmanager_techplus-
||nicovideo.jp/*/user/actions/video/watch-events.json?
||popin.cc/td_js_
||pvtag.yahoo.co.jp^$script,redirect=noop.js
||r.r10s.jp/com/rat/sc/
||rakuten-sec.co.jp/web/shared/js/amy-ai-chat/fingerprint*
||rakuten-sec.co.jp/web/shared/js/sc/
||s.yimg.jp/images/chie/js/ChieRapid3Common
||s.yimg.jp/images/ds/yas/ya-$domain=yahoo.co.jp
||s.yimg.jp/images/rapid/
||securemvt.apple.com^
||silveregg.net^$3p
||snva.jp/javascripts/reco/$script
||staff-start.com/js/track/
||staff-start.com/track/
||tiktok.com/v1/list
||tower.jp/bundle/beacon|$script,1p
||travel.yahoo.co.jp^*/adobe_event.
||veoh.com/increment-view-count-by-id|
||yottaa.com/rapid.min.js
baycrews.jp##.d-recommendBox
business.nikkei.com##.l-content_footer.recommendesInfomation:has-text(あなたにオススメ)
codezine.jp,enterprisezine.jp,freemen.jp,markezine.jp##div[id^=cx_]
emmi.jp###rec
komachi.yomiuri.co.jp###_popIn_recommend
komachi.yomiuri.co.jp###_popIn_recommend_tieup
mail.google.com##+js(ra, data-saferedirecturl, a[data-saferedirecturl])
nikkansports.com##div[id^="cx_"]
office-com.jp###segg_disp_all
pasonatech.co.jp##.detailSideWap
roomie.jp##.powered_by_cx:upward(1)
ropping.tv-asahi.co.jp##div[id^=recommendArea_]
seshop.com###recommend-content
shoeisha.co.jp###rec-related-book-list
storee.saisoncard.co.jp###block-top-recommend
storee.saisoncard.co.jp##.block-recommend-container
storee.saisoncard.co.jp##.mainframe_ > .event_
stripe-club.com###recommendItem
topics.nintendo.co.jp###rt_topics_top_recommend
topics.nintendo.co.jp##.topics-recommend__headline
usagi-online.com##.recommend-list
wpb.shueisha.co.jp##.js-cxense-widget-recommend
/Criteo/*$badfilter
@@/friendbuy.min.js$script,domain=butcherbox.com
@@||accounts.intuit.com/fe_logger?$1p
@@||adobedtm.com/*-source.min.js$script,domain=bose.com|churchofjesuschrist.org|hilton.com|ingrammicro.com|news.sky.com
@@||adobedtm.com/extensions/$script,domain=apple.com|foodnetwork.com
@@||adobedtm.com/launch-$script,xhr
@@||adobedtm.com^*-libraryCode_source.min.js$script,domain=sbisec.co.jp
@@||adobedtm.com^*/launch-$script,xhr
@@||adobedtm.com^*/mbox-contents-$script,domain=americanexpress.com|costco.com|lenovo.com|nfl.com|vanityfair.com|wired.com
@@||adobedtm.com^*/s-code-$script
@@||adobedtm.com^*/satelliteLib-$script,domain=americanexpress.com|auspost.com.au|collegeboard.org|costco.com|lenovo.com|mathworks.com|nbcnews.com|nfl.com|oracle.com|radiko.jp|sony.jp|support.nec-lavie.jp|telegraph.co.uk|vanityfair.com|wired.com
@@||api.cxense.com/document/search?$script,xhr,domain=friday.kodansha.co.jp|ntv.co.jp|tv-tokyo.co.jp
@@||api.cxense.com/public/widget/click/$domain=api.cxense.com
@@||api.cxense.com/public/widget/data$script,xhr,domain=cyclestyle.net|friday.kodansha.co.jp|grajapa.shueisha.co.jp|wpb.shueisha.co.jp
@@||api.cxense.com/public/widget/data?$domain=cinemacafe.net|googirl.jp|marketwatch.com|wsj.com
@@||api.cxense.com/public/widget/data?$script,domain=mainichi.jp
@@||api.cxense.com/public/widget/data?*&ctx=https%3A%2F%2Fure.pia.co.jp$script,domain=cdn.cxpublic.com
@@||api.cxense.com^$script,domain=bizjournals.com|ntv.co.jp
@@||api.ipify.org^$xhr,domain=equinoxplus.com|speedcheck.ky
@@||asadcdn.com/adlib/pages/bild.js$script,domain=bild.de
@@||asadcdn.com/adlib/libmodules/desktop/instream.$script,domain=bild.de
@@||assets.adobedtm.com^*-librarycode_source.min.js$script,domain=mora.jp
@@||assets.adobedtm.com^*/mbox-contents-$script,domain=nsat.collegeboard.org|sony.jp
@@||att.com/scripts/adobe/virtual/detm-container-hdr.js$1p
@@||cdn-net.com/cc.js$script,domain=butterfieldonline.com|uber.com|ubereats.com
@@||cdn.cxense.com/cx.cce.js$domain=mainichi.jp|tarzanweb.jp
@@||cdn.cxense.com/cx.js$domain=tarzanweb.jp|wpb.shueisha.co.jp
@@||cdn.cxense.com^$script,domain=bizjournals.com|bloombergquint.com|marketwatch.com
@@||cdnjs.cloudflare.com/cdn-cgi/trace$xhr,domain=piliapp.com
@@||cdx.cedexis.net^$domain=bloomberg.*
@@||cleverbridge.com/*/cleveranalytics.js^$domain=secure.ccleaner.com
@@||cloudflare.com/cdn-cgi/trace$xhr,domain=54647.io
@@||collect.igodigital.com/collect.js$domain=enoteca.co.jp
@@||cxense.com/cx.cce.js$script,domain=googirl.jp
@@||cxense.com/cx.js$script,domain=cinemacafe.net|googirl.jp|grajapa.shueisha.co.jp|tv-tokyo.co.jp|ure.pia.co.jp
@@||disaportal.gsi.go.jp/maps/js/counter.js
@@||ensighten.com^*/Bootstrap.js$domain=americanexpress.com|britishairways.com|citi.com|dell.com|hp.com|norton.com|t-mobile.com
@@||ensighten.com^*/code/$script
@@||ensighten.com^*/scode/$script,domain=norton.com
@@||ensighten.com^*/serverComponent.php?$script
@@||fplay.online/log_event$1p,xhr
@@||geoip-js.com/js/apis/geoip2/$script,domain=freshdesk.com|web.aw.ca
@@||geoip-js.com^*/me?referrer=$xhr,domain=freshdesk.com|ibanez.com
@@||geolocation-db.com/json/$xhr,domain=filepress.xyz
@@||geolocation-db.com/jsonp$script,domain=parts.hp.com
@@||gstatic.com^*/firebase-performance-standalone.js$script,domain=flightradar24.com
@@||images.news18.com^*/comscore.min.js$script,1p
@@||ioam.de/iam.js$script,domain=bild.de
@@||ipapi.co/json/$xhr
@@||js.monitor.azure.com/scripts/$script,domain=microsoft.com
@@||justmyshop.com/gate/criteo/product-id.js$1p
@@||kaptcha.com/collect/sdk?$domain=wyze.com
@@||kentucky.com/mistats/finalizestats.js$1p
@@||last.fm/static/js-build/tracking/tealium-utag-set.js$script,1p
@@||linksynergy.com/minified_logic.js$xhr,3p,badfilter
@@||live.bbc.co.uk^*/comscore.js$script,1p
@@||lptag.liveperson.net/tag/tag.js$domain=uniqlo.com
@@||mpsnare.iesnare.com/snare.js$domain=login.skype.com
@@||playy.online/log_event$1p,xhr
@@||pvtag.yahoo.co.jp^$script,domain=paypaymall.yahoo.co.jp
@@||quantcast.mgr.consensu.org^*/cmp2.js$script,domain=dailyrecord.co.uk|express.co.uk|gamesradar.com|guitarplayer.com|independent.co.uk|laptopmag.com|livescience.com|mirror.co.uk|musicradar.com|nfl.com|pcgamer.com|researchgate.net|space.com|t3.com|techradar.com|tomsguide.com|tomshardware.com|tumblr.com|whathifi.com|whattowatch.com
@@||rtoaster.jp/Rtoaster.js$domain=satofull.jp
@@||rtoaster.jp^$script,domain=lexus.jp|melonbooks.co.jp|store.united-arrows.co.jp
@@||rum.perfops.net/rum.min.js$script,domain=cdnperf.com
@@||s.thebrighttag.com/tag?site=$domain=sephora.com
@@||sail-horizon.com/spm/spm.v1.min.js$script,domain=voguegirl.jp
@@||scdn.cxense.com/cx.cce.js$script,domain=cinemacafe.net|grajapa.shueisha.co.jp|mainichi.jp|rbbtoday.com|wpb.shueisha.co.jp
@@||scdn.cxense.com/cx.js$script,domain=cdn.cxpublic.com|cyclestyle.net|mainichi.jp
@@||sephora-track.inside-graph.com/gtm/$domain=sephora.com
@@||sephora-track.inside-graph.com/ig.js$domain=sephora.com
@@||snva.jp/javascripts/reco/$domain=concent.co.jp|mouse-jp.co.jp
@@||staff-start.com/js/track/$domain=enoteca.co.jp|francfranc.com|store.alpen-group.jp
@@||tag.aticdn.net^*/smarttag.js$domain=rte.ie
@@||threatbook.cn/public/asset/js/zhugeio.
@@||toplay.biz/log_event$1p,xhr
@@||ttutu.biz/log_event$1p,xhr
@@||wsj.net/iweb/static_html_files/cxense-candy.js$script,domain=marketwatch.com
@@||yottaa.com/rapid.min.js$script,domain=corkcicle.com
@@||youtube.com/api/analytics/$1p
||cxense.com/cx.js$script,redirect=noop.js,domain=friday.kodansha.co.jp,important
||cxense.com/cx.js$script,redirect-rule=noop.js,domain=itmedia.co.jp
-aff-*&clickid=$doc,domain=apple.com
?wak=*_link_$doc,domain=beauty.hotpepper.jp
||ck.jp.ap.valuecommerce.com/servlet/referral?sid=$doc
||d.dmkt-sp.jp/portal/clicklog?$doc
||game.fc2.com/app/*?fc2gtc=$doc
||is.accesstrade.net/cgi-bin/*?rk=$doc
||lightfx.jp/LP/fx/?AffiCode=$doc
||pc-koubou.jp/cgi-bin/linklp/linklp.cgi?siteID=$doc
||samuraiclick.com/lp/*.php?m=$doc
||search.rakuten.co.jp/search/mall/*&l-id=$doc
||shingon.jp/p.php?pr=*&i=$doc
||stepupbuzz.club/st-manager/click/track?id=$doc
||studentwalker.com/st-manager/click/track?id=$doc
||valuecommerce.ne.jp^*/entry.php?ITRACK_INFO=$doc
&event_callback_$doc,removeparam=/^event_callback_/,domain=adjust.com
&linkCode=$doc,removeparam=linkCode,domain=amazon.*
&utm_medium=game^$frame,removeparam=/^utm_/,domain=softgames.com
*$doc,removeparam=CAMP_CD,domain=au-sonpo.co.jp
*$doc,removeparam=_from,domain=mbga.jp
*$doc,removeparam=afid,domain=nijichat.jp
*$doc,removeparam=afult,domain=discas.net
*$doc,removeparam=aid,domain=contents.fc2.com|store.hpplus.jp
*$doc,removeparam=campaign,domain=adjust.com
*$doc,removeparam=cid,domain=kinarino-mall.jp
*$doc,removeparam=ebisOther1
*$doc,removeparam=ebisOther2
*$doc,removeparam=ebisOther3
*$doc,removeparam=ebisOther4
*$doc,removeparam=ebisOther5
*$doc,removeparam=from,domain=dic.nicovideo.jp|englishcentral.com
*$doc,removeparam=lid,domain=kakaku.com|kakakumag.com
*$doc,removeparam=mbid
*$doc,removeparam=ref,domain=iobit.com
*$doc,removeparam=sc2id,domain=rakuten.co.jp
*$doc,removeparam=sc_e,domain=paypaymall.yahoo.co.jp|shopping.yahoo.co.jp
*$doc,removeparam=sc_in,domain=realestate.yahoo.co.jp
*$doc,removeparam=snr,domain=steamcommunity.com|steamgames.com|steampowered.com
*$doc,removeparam=src,domain=dropbox.com
*$doc,removeparam=ult_in,domain=realestate.yahoo.co.jp
*$doc,removeparam=usid,domain=d-card.jp
*$doc,removeparam=utm_brand
*$doc,removeparam=vcptn,domain=digi-tag.net
*$doc,removeparam=vgo_ee
*$doc,removeparam=xuid,domain=k-manga.jp
/lp/*?trcd=$doc,removeparam=trcd
/lp/*?waad=$doc,removeparam=waad
/lp/*^utm_campaign=$doc,removeparam=utm_campaign
/lp/*^utm_content=$doc,removeparam=utm_content
/lp/*^utm_medium=$doc,removeparam=utm_medium
/lp/*^utm_source=$doc,removeparam=utm_source
/lp/*^utm_term=$doc,removeparam=utm_term
/entry_site.pl?SITE=$doc,removeparam=SITE,domain=discas.net
/lp.php?p=*&adcd=$doc,removeparam=adcd
?_rt_ck=$doc,removeparam=_rt_ck
?aid=af_*&algokey=$doc,removeparam=aid,domain=rakuten-sec.co.jp
?aid=af_*&algokey=$doc,removeparam=algokey,domain=rakuten-sec.co.jp
?cpt_s=onlineads&$doc,removeparam=/^cpt_/,domain=page.auctions.yahoo.co.jp
?utm_campaign=$doc,removeparam=utm_campaign,domain=bestvibe.jp|smfg.co.jp
?utm_campaign=post_article^$doc,removeparam=utm_campaign
?utm_source=tw^$doc,removeparam=utm_source
?zoneid=*&bannerid=$doc,removeparam=bannerid
?zoneid=*&bannerid=$doc,removeparam=zoneid
^utm_source=$doc,removeparam=/^utm_/,domain=bunshun.jp|d-card.jp|e-3shop.com|nttdocomo.co.jp|rurubu.travel|u3h8.com
||a-i-ad.com/api/click?ctid=*&aiad_request=$doc,removeparam=aiad_request
||a-i-ad.com/api/click?ctid=*&urid=$doc,removeparam=urid
||ac.ebis.ne.jp/tr_set.php?argument=*&ai=$doc,removeparam=ai
||ad.dmm.co.jp/ad/p/cs?_site=*&_ga=$doc,removeparam=_ga
||ad.dmm.co.jp/ad/p/cs?_site=*&_uid=$doc,removeparam=_uid
||affiliate.suruga-ya.jp/modules/af/af_jump.php?user_id=$doc,removeparam=user_id
||amazon.*&imp=$doc,removeparam=imp
||alwys.net/contents/ard.php?id=*&adwares=$doc,removeparam=id
||belluna.jp^*/?s_cid=$doc,removeparam=s_cid
||buy-ap.piano.io/checkout/template/show?*&customCookies=$frame,removeparam=customCookies,domain=special.sankei.com
||buy-ap.piano.io/checkout/template/show?*&pageViewId=$frame,removeparam=pageViewId,domain=special.sankei.com
||buy-ap.piano.io/checkout/template/show?*&trackingId=$frame,removeparam=trackingId,domain=special.sankei.com
||buy-ap.piano.io/checkout/template/show?*&visitId=$frame,removeparam=visitId,domain=special.sankei.com
||directededge.com/widget?*&tracking=$script,3p,removeparam=tracking
||docomo.ne.jp^*?icid=$doc,removeparam=icid
||duckduckgo.com/?t=$doc,removeparam=t
||github.com^*?notification_referrer_id=$doc,removeparam=notification_referrer_id
||google.com/travel/hotels/entity/*?tcfs=$doc,removeparam=tcfs
||google.com/travel/things-to-do/*&dest_src=$doc,removeparam=dest_src
||instagram.com^*?igshid=$doc,removeparam=igshid
||nuro.jp/campaign/rmd/?recomndNo=$doc,removeparam=recomndNo
||nytimes.com^*&regi_id=$doc,removeparam=regi_id
||nytimes.com^*&segment_id=$doc,removeparam=segment_id
||nytimes.com^*&user_id=$doc,removeparam=user_id
||nytimes.com^*?instance_id=$doc,removeparam=instance_id
||r18.com/videos/vod/*?nats=$doc,removeparam=nats
||support.github.com/?tags=$doc,removeparam=tags
||townwork.net^*?opf=PR1$doc,removeparam=opf
||wimax-broad.jp/?utm_source=lc&utm_medium=affiliate&ac_source=lc&ac_medium=affiliate$doc,removeparam
||zexy.net^*&inrlead=$doc,removeparam=inrlead
||game8.jp^*?follow=$doc,removeparam=follow
||instagram.com^$removeparam=igshid,badfilter
||rakuten.co.jp^$removeparam=sc2id,badfilter
@@||duckduckgo.com/tty^$removeparam=t
